<?xml version="1.0" encoding="UTF-8"?>
<dia:diagram xmlns:dia="http://www.lysator.liu.se/~alla/dia/">
  <dia:diagramdata>
    <dia:attribute name="background">
      <dia:color val="#ffffff"/>
    </dia:attribute>
    <dia:attribute name="pagebreak">
      <dia:color val="#000099"/>
    </dia:attribute>
    <dia:attribute name="paper">
      <dia:composite type="paper">
        <dia:attribute name="name">
          <dia:string>#A4#</dia:string>
        </dia:attribute>
        <dia:attribute name="tmargin">
          <dia:real val="1"/>
        </dia:attribute>
        <dia:attribute name="bmargin">
          <dia:real val="1"/>
        </dia:attribute>
        <dia:attribute name="lmargin">
          <dia:real val="1"/>
        </dia:attribute>
        <dia:attribute name="rmargin">
          <dia:real val="1"/>
        </dia:attribute>
        <dia:attribute name="is_portrait">
          <dia:boolean val="false"/>
        </dia:attribute>
        <dia:attribute name="scaling">
          <dia:real val="0.35380148887634277"/>
        </dia:attribute>
        <dia:attribute name="fitto">
          <dia:boolean val="true"/>
        </dia:attribute>
        <dia:attribute name="fitwidth">
          <dia:int val="1"/>
        </dia:attribute>
        <dia:attribute name="fitheight">
          <dia:int val="1"/>
        </dia:attribute>
      </dia:composite>
    </dia:attribute>
    <dia:attribute name="grid">
      <dia:composite type="grid">
        <dia:attribute name="width_x">
          <dia:real val="0.5"/>
        </dia:attribute>
        <dia:attribute name="width_y">
          <dia:real val="0.5"/>
        </dia:attribute>
        <dia:attribute name="visible_x">
          <dia:int val="1"/>
        </dia:attribute>
        <dia:attribute name="visible_y">
          <dia:int val="1"/>
        </dia:attribute>
        <dia:composite type="color"/>
      </dia:composite>
    </dia:attribute>
    <dia:attribute name="color">
      <dia:color val="#d8e5e5"/>
    </dia:attribute>
    <dia:attribute name="guides">
      <dia:composite type="guides">
        <dia:attribute name="hguides"/>
        <dia:attribute name="vguides"/>
      </dia:composite>
    </dia:attribute>
  </dia:diagramdata>
  <dia:layer name="Background" visible="true" active="true">
    <dia:object type="Standard - Box" version="0" id="O0">
      <dia:attribute name="obj_pos">
        <dia:point val="30,5"/>
      </dia:attribute>
      <dia:attribute name="obj_bb">
        <dia:rectangle val="29.995,4.995;40.005,7.005"/>
      </dia:attribute>
      <dia:attribute name="elem_corner">
        <dia:point val="30,5"/>
      </dia:attribute>
      <dia:attribute name="elem_width">
        <dia:real val="10"/>
      </dia:attribute>
      <dia:attribute name="elem_height">
        <dia:real val="2"/>
      </dia:attribute>
      <dia:attribute name="border_width">
        <dia:real val="0.0099999997764825821"/>
      </dia:attribute>
      <dia:attribute name="show_background">
        <dia:boolean val="true"/>
      </dia:attribute>
    </dia:object>
    <dia:object type="Standard - Text" version="1" id="O1">
      <dia:attribute name="obj_pos">
        <dia:point val="35,6"/>
      </dia:attribute>
      <dia:attribute name="obj_bb">
        <dia:rectangle val="33.6525,5.5975;36.3475,6.4025"/>
      </dia:attribute>
      <dia:attribute name="text">
        <dia:composite type="text">
          <dia:attribute name="string">
            <dia:string>#Ασθενής#</dia:string>
          </dia:attribute>
          <dia:attribute name="font">
            <dia:font family="Source Code Pro" style="48" name="Courier"/>
          </dia:attribute>
          <dia:attribute name="height">
            <dia:real val="0.80000000000000004"/>
          </dia:attribute>
          <dia:attribute name="pos">
            <dia:point val="35,6.2275"/>
          </dia:attribute>
          <dia:attribute name="color">
            <dia:color val="#000000"/>
          </dia:attribute>
          <dia:attribute name="alignment">
            <dia:enum val="1"/>
          </dia:attribute>
        </dia:composite>
      </dia:attribute>
      <dia:attribute name="valign">
        <dia:enum val="2"/>
      </dia:attribute>
      <dia:connections>
        <dia:connection handle="0" to="O0" connection="8"/>
      </dia:connections>
    </dia:object>
    <dia:object type="Standard - Box" version="0" id="O2">
      <dia:attribute name="obj_pos">
        <dia:point val="30,17.5"/>
      </dia:attribute>
      <dia:attribute name="obj_bb">
        <dia:rectangle val="29.995,17.495;40.005,19.505"/>
      </dia:attribute>
      <dia:attribute name="elem_corner">
        <dia:point val="30,17.5"/>
      </dia:attribute>
      <dia:attribute name="elem_width">
        <dia:real val="10"/>
      </dia:attribute>
      <dia:attribute name="elem_height">
        <dia:real val="2"/>
      </dia:attribute>
      <dia:attribute name="border_width">
        <dia:real val="0.0099999997764825821"/>
      </dia:attribute>
      <dia:attribute name="show_background">
        <dia:boolean val="true"/>
      </dia:attribute>
    </dia:object>
    <dia:object type="Standard - Text" version="1" id="O3">
      <dia:attribute name="obj_pos">
        <dia:point val="35,18.5"/>
      </dia:attribute>
      <dia:attribute name="obj_bb">
        <dia:rectangle val="31.92,18.0975;38.08,18.9025"/>
      </dia:attribute>
      <dia:attribute name="text">
        <dia:composite type="text">
          <dia:attribute name="string">
            <dia:string>#Υπάλληλος Τ.Ε.Π.#</dia:string>
          </dia:attribute>
          <dia:attribute name="font">
            <dia:font family="Source Code Pro" style="48" name="Courier"/>
          </dia:attribute>
          <dia:attribute name="height">
            <dia:real val="0.80000000000000004"/>
          </dia:attribute>
          <dia:attribute name="pos">
            <dia:point val="35,18.7275"/>
          </dia:attribute>
          <dia:attribute name="color">
            <dia:color val="#000000"/>
          </dia:attribute>
          <dia:attribute name="alignment">
            <dia:enum val="1"/>
          </dia:attribute>
        </dia:composite>
      </dia:attribute>
      <dia:attribute name="valign">
        <dia:enum val="2"/>
      </dia:attribute>
      <dia:connections>
        <dia:connection handle="0" to="O2" connection="8"/>
      </dia:connections>
    </dia:object>
    <dia:object type="Standard - Box" version="0" id="O4">
      <dia:attribute name="obj_pos">
        <dia:point val="67.5,5"/>
      </dia:attribute>
      <dia:attribute name="obj_bb">
        <dia:rectangle val="67.495,4.995;77.505,7.005"/>
      </dia:attribute>
      <dia:attribute name="elem_corner">
        <dia:point val="67.5,5"/>
      </dia:attribute>
      <dia:attribute name="elem_width">
        <dia:real val="10"/>
      </dia:attribute>
      <dia:attribute name="elem_height">
        <dia:real val="2"/>
      </dia:attribute>
      <dia:attribute name="border_width">
        <dia:real val="0.0099999997764825821"/>
      </dia:attribute>
      <dia:attribute name="show_background">
        <dia:boolean val="true"/>
      </dia:attribute>
    </dia:object>
    <dia:object type="Standard - Text" version="1" id="O5">
      <dia:attribute name="obj_pos">
        <dia:point val="72.5,6"/>
      </dia:attribute>
      <dia:attribute name="obj_bb">
        <dia:rectangle val="70.19,5.5975;74.81,6.4025"/>
      </dia:attribute>
      <dia:attribute name="text">
        <dia:composite type="text">
          <dia:attribute name="string">
            <dia:string>#Ομάδα Triage#</dia:string>
          </dia:attribute>
          <dia:attribute name="font">
            <dia:font family="Source Code Pro" style="48" name="Courier"/>
          </dia:attribute>
          <dia:attribute name="height">
            <dia:real val="0.80000000000000004"/>
          </dia:attribute>
          <dia:attribute name="pos">
            <dia:point val="72.5,6.2275"/>
          </dia:attribute>
          <dia:attribute name="color">
            <dia:color val="#000000"/>
          </dia:attribute>
          <dia:attribute name="alignment">
            <dia:enum val="1"/>
          </dia:attribute>
        </dia:composite>
      </dia:attribute>
      <dia:attribute name="valign">
        <dia:enum val="2"/>
      </dia:attribute>
      <dia:connections>
        <dia:connection handle="0" to="O4" connection="8"/>
      </dia:connections>
    </dia:object>
    <dia:object type="Standard - Box" version="0" id="O6">
      <dia:attribute name="obj_pos">
        <dia:point val="60,20"/>
      </dia:attribute>
      <dia:attribute name="obj_bb">
        <dia:rectangle val="59.995,19.995;70.005,22.005"/>
      </dia:attribute>
      <dia:attribute name="elem_corner">
        <dia:point val="60,20"/>
      </dia:attribute>
      <dia:attribute name="elem_width">
        <dia:real val="10"/>
      </dia:attribute>
      <dia:attribute name="elem_height">
        <dia:real val="2"/>
      </dia:attribute>
      <dia:attribute name="border_width">
        <dia:real val="0.0099999997764825821"/>
      </dia:attribute>
      <dia:attribute name="show_background">
        <dia:boolean val="true"/>
      </dia:attribute>
    </dia:object>
    <dia:object type="Standard - Text" version="1" id="O7">
      <dia:attribute name="obj_pos">
        <dia:point val="65,21"/>
      </dia:attribute>
      <dia:attribute name="obj_bb">
        <dia:rectangle val="63.6525,20.5975;66.3475,21.4025"/>
      </dia:attribute>
      <dia:attribute name="text">
        <dia:composite type="text">
          <dia:attribute name="string">
            <dia:string>#Συνοδός#</dia:string>
          </dia:attribute>
          <dia:attribute name="font">
            <dia:font family="Source Code Pro" style="48" name="Courier"/>
          </dia:attribute>
          <dia:attribute name="height">
            <dia:real val="0.80000000000000004"/>
          </dia:attribute>
          <dia:attribute name="pos">
            <dia:point val="65,21.2275"/>
          </dia:attribute>
          <dia:attribute name="color">
            <dia:color val="#000000"/>
          </dia:attribute>
          <dia:attribute name="alignment">
            <dia:enum val="1"/>
          </dia:attribute>
        </dia:composite>
      </dia:attribute>
      <dia:attribute name="valign">
        <dia:enum val="2"/>
      </dia:attribute>
      <dia:connections>
        <dia:connection handle="0" to="O6" connection="8"/>
      </dia:connections>
    </dia:object>
    <dia:object type="Standard - Line" version="0" id="O8">
      <dia:attribute name="obj_pos">
        <dia:point val="35,7.00479"/>
      </dia:attribute>
      <dia:attribute name="obj_bb">
        <dia:rectangle val="34.95,6.95479;35.05,17.5452"/>
      </dia:attribute>
      <dia:attribute name="conn_endpoints">
        <dia:point val="35,7.00479"/>
        <dia:point val="35,17.4952"/>
      </dia:attribute>
      <dia:attribute name="numcp">
        <dia:int val="1"/>
      </dia:attribute>
      <dia:connections>
        <dia:connection handle="0" to="O0" connection="8"/>
        <dia:connection handle="1" to="O2" connection="8"/>
      </dia:connections>
    </dia:object>
    <dia:object type="Standard - Line" version="0" id="O9">
      <dia:attribute name="obj_pos">
        <dia:point val="34.5,11.5"/>
      </dia:attribute>
      <dia:attribute name="obj_bb">
        <dia:rectangle val="34.2419,11.495;34.7581,13.5112"/>
      </dia:attribute>
      <dia:attribute name="conn_endpoints">
        <dia:point val="34.5,11.5"/>
        <dia:point val="34.5,13.5"/>
      </dia:attribute>
      <dia:attribute name="numcp">
        <dia:int val="1"/>
      </dia:attribute>
      <dia:attribute name="line_width">
        <dia:real val="0.0099999997764825821"/>
      </dia:attribute>
      <dia:attribute name="end_arrow">
        <dia:enum val="3"/>
      </dia:attribute>
      <dia:attribute name="end_arrow_length">
        <dia:real val="0.5"/>
      </dia:attribute>
      <dia:attribute name="end_arrow_width">
        <dia:real val="0.5"/>
      </dia:attribute>
    </dia:object>
    <dia:object type="Standard - Text" version="1" id="O10">
      <dia:attribute name="obj_pos">
        <dia:point val="34.5,12.5"/>
      </dia:attribute>
      <dia:attribute name="obj_bb">
        <dia:rectangle val="24.3125,12.0738;34.5,12.9262"/>
      </dia:attribute>
      <dia:attribute name="text">
        <dia:composite type="text">
          <dia:attribute name="string">
            <dia:string>#1. καταγραφή_στοιχείων() #</dia:string>
          </dia:attribute>
          <dia:attribute name="font">
            <dia:font family="Source Code Pro" style="48" name="Courier"/>
          </dia:attribute>
          <dia:attribute name="height">
            <dia:real val="0.84666663408279419"/>
          </dia:attribute>
          <dia:attribute name="pos">
            <dia:point val="34.5,12.7413"/>
          </dia:attribute>
          <dia:attribute name="color">
            <dia:color val="#000000"/>
          </dia:attribute>
          <dia:attribute name="alignment">
            <dia:enum val="2"/>
          </dia:attribute>
        </dia:composite>
      </dia:attribute>
      <dia:attribute name="valign">
        <dia:enum val="2"/>
      </dia:attribute>
      <dia:connections>
        <dia:connection handle="0" to="O9" connection="0"/>
      </dia:connections>
    </dia:object>
    <dia:object type="Standard - Line" version="0" id="O11">
      <dia:attribute name="obj_pos">
        <dia:point val="35.5,11.5"/>
      </dia:attribute>
      <dia:attribute name="obj_bb">
        <dia:rectangle val="35.2419,11.4938;35.7581,13.505"/>
      </dia:attribute>
      <dia:attribute name="conn_endpoints">
        <dia:point val="35.5,11.5"/>
        <dia:point val="35.5,13.5"/>
      </dia:attribute>
      <dia:attribute name="numcp">
        <dia:int val="1"/>
      </dia:attribute>
      <dia:attribute name="line_width">
        <dia:real val="0.0099999997764825821"/>
      </dia:attribute>
      <dia:attribute name="start_arrow">
        <dia:enum val="3"/>
      </dia:attribute>
      <dia:attribute name="start_arrow_length">
        <dia:real val="0.5"/>
      </dia:attribute>
      <dia:attribute name="start_arrow_width">
        <dia:real val="0.5"/>
      </dia:attribute>
    </dia:object>
    <dia:object type="Standard - Text" version="1" id="O12">
      <dia:attribute name="obj_pos">
        <dia:point val="35.5,12.5"/>
      </dia:attribute>
      <dia:attribute name="obj_bb">
        <dia:rectangle val="35.5,12.0738;46.91,12.9262"/>
      </dia:attribute>
      <dia:attribute name="text">
        <dia:composite type="text">
          <dia:attribute name="string">
            <dia:string># 2. απόδοση_κωδικού_ασθενή()#</dia:string>
          </dia:attribute>
          <dia:attribute name="font">
            <dia:font family="Source Code Pro" style="48" name="Courier"/>
          </dia:attribute>
          <dia:attribute name="height">
            <dia:real val="0.84666663408279419"/>
          </dia:attribute>
          <dia:attribute name="pos">
            <dia:point val="35.5,12.7413"/>
          </dia:attribute>
          <dia:attribute name="color">
            <dia:color val="#000000"/>
          </dia:attribute>
          <dia:attribute name="alignment">
            <dia:enum val="0"/>
          </dia:attribute>
        </dia:composite>
      </dia:attribute>
      <dia:attribute name="valign">
        <dia:enum val="2"/>
      </dia:attribute>
      <dia:connections>
        <dia:connection handle="0" to="O11" connection="0"/>
      </dia:connections>
    </dia:object>
    <dia:object type="Standard - PolyLine" version="0" id="O13">
      <dia:attribute name="obj_pos">
        <dia:point val="30,18.5"/>
      </dia:attribute>
      <dia:attribute name="obj_bb">
        <dia:rectangle val="14.95,18.45;35.05,27.55"/>
      </dia:attribute>
      <dia:attribute name="poly_points">
        <dia:point val="30,18.5"/>
        <dia:point val="15,18.5"/>
        <dia:point val="15,27.5"/>
        <dia:point val="35,27.5"/>
        <dia:point val="35,19.5"/>
      </dia:attribute>
      <dia:connections>
        <dia:connection handle="0" to="O2" connection="3"/>
        <dia:connection handle="4" to="O2" connection="6"/>
      </dia:connections>
    </dia:object>
    <dia:object type="Standard - Line" version="0" id="O14">
      <dia:attribute name="obj_pos">
        <dia:point val="15.5,22"/>
      </dia:attribute>
      <dia:attribute name="obj_bb">
        <dia:rectangle val="15.2419,21.995;15.7581,24.0112"/>
      </dia:attribute>
      <dia:attribute name="conn_endpoints">
        <dia:point val="15.5,22"/>
        <dia:point val="15.5,24"/>
      </dia:attribute>
      <dia:attribute name="numcp">
        <dia:int val="1"/>
      </dia:attribute>
      <dia:attribute name="line_width">
        <dia:real val="0.0099999997764825821"/>
      </dia:attribute>
      <dia:attribute name="end_arrow">
        <dia:enum val="3"/>
      </dia:attribute>
      <dia:attribute name="end_arrow_length">
        <dia:real val="0.5"/>
      </dia:attribute>
      <dia:attribute name="end_arrow_width">
        <dia:real val="0.5"/>
      </dia:attribute>
    </dia:object>
    <dia:object type="Standard - Text" version="1" id="O15">
      <dia:attribute name="obj_pos">
        <dia:point val="15.5,23"/>
      </dia:attribute>
      <dia:attribute name="obj_bb">
        <dia:rectangle val="15.5,22.5738;32.615,23.4262"/>
      </dia:attribute>
      <dia:attribute name="text">
        <dia:composite type="text">
          <dia:attribute name="string">
            <dia:string># 3. δημιουργία_ατομικού_ιατρικού_φακέλου()#</dia:string>
          </dia:attribute>
          <dia:attribute name="font">
            <dia:font family="Source Code Pro" style="48" name="Courier"/>
          </dia:attribute>
          <dia:attribute name="height">
            <dia:real val="0.84666663408279419"/>
          </dia:attribute>
          <dia:attribute name="pos">
            <dia:point val="15.5,23.2413"/>
          </dia:attribute>
          <dia:attribute name="color">
            <dia:color val="#000000"/>
          </dia:attribute>
          <dia:attribute name="alignment">
            <dia:enum val="0"/>
          </dia:attribute>
        </dia:composite>
      </dia:attribute>
      <dia:attribute name="valign">
        <dia:enum val="2"/>
      </dia:attribute>
      <dia:connections>
        <dia:connection handle="0" to="O14" connection="0"/>
      </dia:connections>
    </dia:object>
    <dia:object type="Standard - ZigZagLine" version="1" id="O16">
      <dia:attribute name="obj_pos">
        <dia:point val="40.0047,18.5"/>
      </dia:attribute>
      <dia:attribute name="obj_bb">
        <dia:rectangle val="39.9547,5.95;67.55,18.55"/>
      </dia:attribute>
      <dia:attribute name="orth_points">
        <dia:point val="40.0047,18.5"/>
        <dia:point val="50,18.5"/>
        <dia:point val="50,6"/>
        <dia:point val="67.5,6"/>
      </dia:attribute>
      <dia:attribute name="orth_orient">
        <dia:enum val="0"/>
        <dia:enum val="1"/>
        <dia:enum val="0"/>
      </dia:attribute>
      <dia:attribute name="autorouting">
        <dia:boolean val="false"/>
      </dia:attribute>
      <dia:connections>
        <dia:connection handle="0" to="O2" connection="8"/>
        <dia:connection handle="1" to="O4" connection="3"/>
      </dia:connections>
    </dia:object>
    <dia:object type="Standard - Line" version="0" id="O17">
      <dia:attribute name="obj_pos">
        <dia:point val="60,5.5"/>
      </dia:attribute>
      <dia:attribute name="obj_bb">
        <dia:rectangle val="56.995,5.24191;60.0062,5.75809"/>
      </dia:attribute>
      <dia:attribute name="conn_endpoints">
        <dia:point val="60,5.5"/>
        <dia:point val="57,5.5"/>
      </dia:attribute>
      <dia:attribute name="numcp">
        <dia:int val="1"/>
      </dia:attribute>
      <dia:attribute name="line_width">
        <dia:real val="0.0099999997764825821"/>
      </dia:attribute>
      <dia:attribute name="start_arrow">
        <dia:enum val="3"/>
      </dia:attribute>
      <dia:attribute name="start_arrow_length">
        <dia:real val="0.5"/>
      </dia:attribute>
      <dia:attribute name="start_arrow_width">
        <dia:real val="0.5"/>
      </dia:attribute>
    </dia:object>
    <dia:object type="Standard - Text" version="1" id="O18">
      <dia:attribute name="obj_pos">
        <dia:point val="58.5,5"/>
      </dia:attribute>
      <dia:attribute name="obj_bb">
        <dia:rectangle val="52.1838,4.1475;64.8162,5"/>
      </dia:attribute>
      <dia:attribute name="text">
        <dia:composite type="text">
          <dia:attribute name="string">
            <dia:string># 4. παράδοση_ιατρικού_φακέλου()#</dia:string>
          </dia:attribute>
          <dia:attribute name="font">
            <dia:font family="Source Code Pro" style="48" name="Courier"/>
          </dia:attribute>
          <dia:attribute name="height">
            <dia:real val="0.84666663408279419"/>
          </dia:attribute>
          <dia:attribute name="pos">
            <dia:point val="58.5,4.815"/>
          </dia:attribute>
          <dia:attribute name="color">
            <dia:color val="#000000"/>
          </dia:attribute>
          <dia:attribute name="alignment">
            <dia:enum val="1"/>
          </dia:attribute>
        </dia:composite>
      </dia:attribute>
      <dia:attribute name="valign">
        <dia:enum val="1"/>
      </dia:attribute>
    </dia:object>
    <dia:object type="Standard - Box" version="0" id="O19">
      <dia:attribute name="obj_pos">
        <dia:point val="75,20"/>
      </dia:attribute>
      <dia:attribute name="obj_bb">
        <dia:rectangle val="74.995,19.995;85.005,22.005"/>
      </dia:attribute>
      <dia:attribute name="elem_corner">
        <dia:point val="75,20"/>
      </dia:attribute>
      <dia:attribute name="elem_width">
        <dia:real val="10"/>
      </dia:attribute>
      <dia:attribute name="elem_height">
        <dia:real val="2"/>
      </dia:attribute>
      <dia:attribute name="border_width">
        <dia:real val="0.0099999997764825821"/>
      </dia:attribute>
      <dia:attribute name="show_background">
        <dia:boolean val="true"/>
      </dia:attribute>
    </dia:object>
    <dia:object type="Standard - Text" version="1" id="O20">
      <dia:attribute name="obj_pos">
        <dia:point val="80,21"/>
      </dia:attribute>
      <dia:attribute name="obj_bb">
        <dia:rectangle val="79.23,20.5975;80.77,21.4025"/>
      </dia:attribute>
      <dia:attribute name="text">
        <dia:composite type="text">
          <dia:attribute name="string">
            <dia:string>#ΕΚΑΒ#</dia:string>
          </dia:attribute>
          <dia:attribute name="font">
            <dia:font family="Source Code Pro" style="48" name="Courier"/>
          </dia:attribute>
          <dia:attribute name="height">
            <dia:real val="0.80000000000000004"/>
          </dia:attribute>
          <dia:attribute name="pos">
            <dia:point val="80,21.2275"/>
          </dia:attribute>
          <dia:attribute name="color">
            <dia:color val="#000000"/>
          </dia:attribute>
          <dia:attribute name="alignment">
            <dia:enum val="1"/>
          </dia:attribute>
        </dia:composite>
      </dia:attribute>
      <dia:attribute name="valign">
        <dia:enum val="2"/>
      </dia:attribute>
      <dia:connections>
        <dia:connection handle="0" to="O19" connection="8"/>
      </dia:connections>
    </dia:object>
    <dia:object type="Standard - Line" version="0" id="O21">
      <dia:attribute name="obj_pos">
        <dia:point val="71.9978,7.00433"/>
      </dia:attribute>
      <dia:attribute name="obj_bb">
        <dia:rectangle val="65.4351,6.93725;72.0649,20.0627"/>
      </dia:attribute>
      <dia:attribute name="conn_endpoints">
        <dia:point val="71.9978,7.00433"/>
        <dia:point val="65.5022,19.9957"/>
      </dia:attribute>
      <dia:attribute name="numcp">
        <dia:int val="1"/>
      </dia:attribute>
      <dia:connections>
        <dia:connection handle="0" to="O4" connection="8"/>
        <dia:connection handle="1" to="O6" connection="8"/>
      </dia:connections>
    </dia:object>
    <dia:object type="Standard - Line" version="0" id="O22">
      <dia:attribute name="obj_pos">
        <dia:point val="73.0022,7.00433"/>
      </dia:attribute>
      <dia:attribute name="obj_bb">
        <dia:rectangle val="72.9351,6.93725;79.5649,20.0627"/>
      </dia:attribute>
      <dia:attribute name="conn_endpoints">
        <dia:point val="73.0022,7.00433"/>
        <dia:point val="79.4978,19.9957"/>
      </dia:attribute>
      <dia:attribute name="numcp">
        <dia:int val="1"/>
      </dia:attribute>
      <dia:connections>
        <dia:connection handle="0" to="O4" connection="8"/>
        <dia:connection handle="1" to="O19" connection="8"/>
      </dia:connections>
    </dia:object>
    <dia:object type="Standard - Line" version="0" id="O23">
      <dia:attribute name="obj_pos">
        <dia:point val="69.5,10.5"/>
      </dia:attribute>
      <dia:attribute name="obj_bb">
        <dia:rectangle val="65.9933,10.4933;69.5067,17.5067"/>
      </dia:attribute>
      <dia:attribute name="conn_endpoints">
        <dia:point val="69.5,10.5"/>
        <dia:point val="66,17.5"/>
      </dia:attribute>
      <dia:attribute name="numcp">
        <dia:int val="1"/>
      </dia:attribute>
      <dia:attribute name="line_width">
        <dia:real val="0.0099999997764825821"/>
      </dia:attribute>
      <dia:attribute name="start_arrow">
        <dia:enum val="3"/>
      </dia:attribute>
      <dia:attribute name="start_arrow_length">
        <dia:real val="0.5"/>
      </dia:attribute>
      <dia:attribute name="start_arrow_width">
        <dia:real val="0.5"/>
      </dia:attribute>
    </dia:object>
    <dia:object type="Standard - Text" version="1" id="O24">
      <dia:attribute name="obj_pos">
        <dia:point val="60,14"/>
      </dia:attribute>
      <dia:attribute name="obj_bb">
        <dia:rectangle val="52.2575,13.1475;67.7425,14"/>
      </dia:attribute>
      <dia:attribute name="text">
        <dia:composite type="text">
          <dia:attribute name="string">
            <dia:string>#5.1.1. συλλογή_πρόσθετων_πληροφοριων()#</dia:string>
          </dia:attribute>
          <dia:attribute name="font">
            <dia:font family="Source Code Pro" style="48" name="Courier"/>
          </dia:attribute>
          <dia:attribute name="height">
            <dia:real val="0.84666663408279419"/>
          </dia:attribute>
          <dia:attribute name="pos">
            <dia:point val="60,13.815"/>
          </dia:attribute>
          <dia:attribute name="color">
            <dia:color val="#000000"/>
          </dia:attribute>
          <dia:attribute name="alignment">
            <dia:enum val="1"/>
          </dia:attribute>
        </dia:composite>
      </dia:attribute>
      <dia:attribute name="valign">
        <dia:enum val="1"/>
      </dia:attribute>
    </dia:object>
    <dia:object type="Standard - Line" version="0" id="O25">
      <dia:attribute name="obj_pos">
        <dia:point val="75.5,10.5"/>
      </dia:attribute>
      <dia:attribute name="obj_bb">
        <dia:rectangle val="75.4933,10.4933;79.0067,17.5067"/>
      </dia:attribute>
      <dia:attribute name="conn_endpoints">
        <dia:point val="75.5,10.5"/>
        <dia:point val="79,17.5"/>
      </dia:attribute>
      <dia:attribute name="numcp">
        <dia:int val="1"/>
      </dia:attribute>
      <dia:attribute name="line_width">
        <dia:real val="0.0099999997764825821"/>
      </dia:attribute>
      <dia:attribute name="start_arrow">
        <dia:enum val="3"/>
      </dia:attribute>
      <dia:attribute name="start_arrow_length">
        <dia:real val="0.5"/>
      </dia:attribute>
      <dia:attribute name="start_arrow_width">
        <dia:real val="0.5"/>
      </dia:attribute>
    </dia:object>
    <dia:object type="Standard - Text" version="1" id="O26">
      <dia:attribute name="obj_pos">
        <dia:point val="85.5,14"/>
      </dia:attribute>
      <dia:attribute name="obj_bb">
        <dia:rectangle val="77.7575,13.1475;93.2425,14"/>
      </dia:attribute>
      <dia:attribute name="text">
        <dia:composite type="text">
          <dia:attribute name="string">
            <dia:string>#5.1.2. συλλογή_πρόσθετων_πληροφοριων()#</dia:string>
          </dia:attribute>
          <dia:attribute name="font">
            <dia:font family="Source Code Pro" style="48" name="Courier"/>
          </dia:attribute>
          <dia:attribute name="height">
            <dia:real val="0.84666663408279419"/>
          </dia:attribute>
          <dia:attribute name="pos">
            <dia:point val="85.5,13.815"/>
          </dia:attribute>
          <dia:attribute name="color">
            <dia:color val="#000000"/>
          </dia:attribute>
          <dia:attribute name="alignment">
            <dia:enum val="1"/>
          </dia:attribute>
        </dia:composite>
      </dia:attribute>
      <dia:attribute name="valign">
        <dia:enum val="1"/>
      </dia:attribute>
    </dia:object>
    <dia:object type="Standard - PolyLine" version="0" id="O27">
      <dia:attribute name="obj_pos">
        <dia:point val="72.5,5"/>
      </dia:attribute>
      <dia:attribute name="obj_bb">
        <dia:rectangle val="72.45,-0.05;85.05,6.05"/>
      </dia:attribute>
      <dia:attribute name="poly_points">
        <dia:point val="72.5,5"/>
        <dia:point val="72.5,0"/>
        <dia:point val="85,0"/>
        <dia:point val="85,6"/>
        <dia:point val="77.5,6"/>
      </dia:attribute>
      <dia:connections>
        <dia:connection handle="0" to="O4" connection="1"/>
        <dia:connection handle="4" to="O4" connection="4"/>
      </dia:connections>
    </dia:object>
    <dia:object type="Standard - Text" version="1" id="O28">
      <dia:attribute name="obj_pos">
        <dia:point val="79,-1"/>
      </dia:attribute>
      <dia:attribute name="obj_bb">
        <dia:rectangle val="74.11,-1.8525;83.89,-1"/>
      </dia:attribute>
      <dia:attribute name="text">
        <dia:composite type="text">
          <dia:attribute name="string">
            <dia:string>#5. αξιολόγηση_ασθενούς()#</dia:string>
          </dia:attribute>
          <dia:attribute name="font">
            <dia:font family="Source Code Pro" style="48" name="Courier"/>
          </dia:attribute>
          <dia:attribute name="height">
            <dia:real val="0.84666663408279419"/>
          </dia:attribute>
          <dia:attribute name="pos">
            <dia:point val="79,-1.185"/>
          </dia:attribute>
          <dia:attribute name="color">
            <dia:color val="#000000"/>
          </dia:attribute>
          <dia:attribute name="alignment">
            <dia:enum val="1"/>
          </dia:attribute>
        </dia:composite>
      </dia:attribute>
      <dia:attribute name="valign">
        <dia:enum val="1"/>
      </dia:attribute>
    </dia:object>
    <dia:object type="Standard - Line" version="0" id="O29">
      <dia:attribute name="obj_pos">
        <dia:point val="80.5,-0.5"/>
      </dia:attribute>
      <dia:attribute name="obj_bb">
        <dia:rectangle val="77.495,-0.75809;80.5062,-0.24191"/>
      </dia:attribute>
      <dia:attribute name="conn_endpoints">
        <dia:point val="80.5,-0.5"/>
        <dia:point val="77.5,-0.5"/>
      </dia:attribute>
      <dia:attribute name="numcp">
        <dia:int val="1"/>
      </dia:attribute>
      <dia:attribute name="line_width">
        <dia:real val="0.0099999997764825821"/>
      </dia:attribute>
      <dia:attribute name="start_arrow">
        <dia:enum val="3"/>
      </dia:attribute>
      <dia:attribute name="start_arrow_length">
        <dia:real val="0.5"/>
      </dia:attribute>
      <dia:attribute name="start_arrow_width">
        <dia:real val="0.5"/>
      </dia:attribute>
    </dia:object>
    <dia:object type="Standard - PolyLine" version="0" id="O30">
      <dia:attribute name="obj_pos">
        <dia:point val="72.5,6"/>
      </dia:attribute>
      <dia:attribute name="obj_bb">
        <dia:rectangle val="34.95,-0.05;71.7327,5.06517"/>
      </dia:attribute>
      <dia:attribute name="poly_points">
        <dia:point val="72.5,6"/>
        <dia:point val="67.5,0"/>
        <dia:point val="35,0"/>
        <dia:point val="35,5"/>
      </dia:attribute>
      <dia:connections>
        <dia:connection handle="0" to="O4" connection="8"/>
        <dia:connection handle="3" to="O0" connection="1"/>
      </dia:connections>
    </dia:object>
    <dia:object type="Standard - Text" version="1" id="O31">
      <dia:attribute name="obj_pos">
        <dia:point val="52.5,-1"/>
      </dia:attribute>
      <dia:attribute name="obj_bb">
        <dia:rectangle val="45.7762,-1.8525;59.2237,-1"/>
      </dia:attribute>
      <dia:attribute name="text">
        <dia:composite type="text">
          <dia:attribute name="string">
            <dia:string>#6. απόδοση_κατηγορίας_βαρύτητας()#</dia:string>
          </dia:attribute>
          <dia:attribute name="font">
            <dia:font family="Source Code Pro" style="48" name="Courier"/>
          </dia:attribute>
          <dia:attribute name="height">
            <dia:real val="0.84666663408279419"/>
          </dia:attribute>
          <dia:attribute name="pos">
            <dia:point val="52.5,-1.185"/>
          </dia:attribute>
          <dia:attribute name="color">
            <dia:color val="#000000"/>
          </dia:attribute>
          <dia:attribute name="alignment">
            <dia:enum val="1"/>
          </dia:attribute>
        </dia:composite>
      </dia:attribute>
      <dia:attribute name="valign">
        <dia:enum val="1"/>
      </dia:attribute>
    </dia:object>
    <dia:object type="Standard - Line" version="0" id="O32">
      <dia:attribute name="obj_pos">
        <dia:point val="54,-0.5"/>
      </dia:attribute>
      <dia:attribute name="obj_bb">
        <dia:rectangle val="50.9888,-0.75809;54.005,-0.24191"/>
      </dia:attribute>
      <dia:attribute name="conn_endpoints">
        <dia:point val="54,-0.5"/>
        <dia:point val="51,-0.5"/>
      </dia:attribute>
      <dia:attribute name="numcp">
        <dia:int val="1"/>
      </dia:attribute>
      <dia:attribute name="line_width">
        <dia:real val="0.0099999997764825821"/>
      </dia:attribute>
      <dia:attribute name="end_arrow">
        <dia:enum val="3"/>
      </dia:attribute>
      <dia:attribute name="end_arrow_length">
        <dia:real val="0.5"/>
      </dia:attribute>
      <dia:attribute name="end_arrow_width">
        <dia:real val="0.5"/>
      </dia:attribute>
    </dia:object>
  </dia:layer>
</dia:diagram>
